0.4 1.85  1          60 
1.4 2.35  1         73 
1.4 1.35  1         64 
2.4 2.85  1         9 
2.4 1.85  1         53 
2.4 0.85  1         21 
3.5 2.85 -1         60 
3.5 1.85 -1         76 
3.5 0.85 -1         91 
4.5 2.35 -1          7 
4.5 1.35 -1         49 
5.5 1.85 -1         93 
0.5 1.35 -1        13 
1.5 0.85 -1        35 
1.5 1.85 -1        79 
2.5 2.35 -1        70 
2.5 1.35 -1        45 
2.5 0.35 -1        32 
3.4 2.35  1        64 
3.4 1.35  1        68 
3.4 0.35  1        75 
4.4 1.85  1        66 
4.4 0.85  1        72 
5.4 1.35  1        50 
                   22 
                   94 
                   65 
                   16 
                   41 
                   19 
                   57 
                   29 
                   94 
                   85 
                   84 
                   81 
                   70 
                   70 
                   94 
                   64 
                   12 
                   74 
                   70 
                   65 
                   42 
                   19 
                   47 
                   15 
                   97 
                   59 
                   66 
                   99 
                   56 
                   19 
                   7 
                   83 
                   33 
                   29 
                   51 
                   54 
                   20 
                   58 
                   68 
                   44 
                   85 
                   25 
                   23 
                   59 
                   77 
                   16 
                   75 
                   60 
                   76 
                   45 
                   65 
                   32 
                   36 
                   36 
                   51 
                   58 
                   52 
                   35 
                   87 
                   78 
                   59 
                   8 
                   38 
                   10 
                   85 
                   92 
                   90 
                   7 
                   81 
                   40 
                   64 
                   88 
                   57 
                   71 
                   71 
                   89 
                   49 
                   11 
