Position,Name + ID,Name,ID,Roster Position,Salary,Game Info,TeamAbbrev,AvgPointsPerGame
G,Aaron Baddeley (13487056),Aaron Baddeley,13487056,G,6700,Shriners Hospitals for Children Open,Golf,67.5
G,Abraham Ancer (13487007),Abraham Ancer,13487007,G,7700,Shriners Hospitals for Children Open,Golf,55
G,Adam Hadwin (13486990),Adam Hadwin,13486990,G,9100,Shriners Hospitals for Children Open,Golf,111
G,Adam Long (13308316),Adam Long,13308316,G,6300,A Military Tribute at The Greenbrier,Golf,44.85
G,Adam Schenk (13308256),Adam Schenk,13308256,G,7200,A Military Tribute at The Greenbrier,Golf,61.13
G,Adam Scott (13486982),Adam Scott,13486982,G,10000,Shriners Hospitals for Children Open,Golf,90.5
G,Akshay Bhatia (13365682),Akshay Bhatia,13365682,G,6100,Sanderson Farms Championship,Golf,25.5
G,Andrew Landry (13308248),Andrew Landry,13308248,G,7400,A Military Tribute at The Greenbrier,Golf,54.21
G,Anirban Lahiri (13308260),Anirban Lahiri,13308260,G,7200,A Military Tribute at The Greenbrier,Golf,47.91
G,Austin Cook (13308238),Austin Cook,13308238,G,7800,A Military Tribute at The Greenbrier,Golf,52.61
G,Beau Hossler (13308255),Beau Hossler,13308255,G,7300,A Military Tribute at The Greenbrier,Golf,56.30
G,Ben Martin (13365629),Ben Martin,13365629,G,6600,Sanderson Farms Championship,Golf,23
G,Ben Taylor (13308339),Ben Taylor,13308339,G,6100,A Military Tribute at The Greenbrier,Golf,0
G,Bo Hoag (13308297),Bo Hoag,13308297,G,6600,A Military Tribute at The Greenbrier,Golf,0
G,Bo Van Pelt (13487112),Bo Van Pelt,13487112,G,6000,Shriners Hospitals for Children Open,Golf,56
G,Brandon Hagy (13308251),Brandon Hagy,13308251,G,7400,A Military Tribute at The Greenbrier,Golf,33.27
G,Brandt Snedeker (13365549),Brandt Snedeker,13365549,G,10700,Sanderson Farms Championship,Golf,68.81
G,Brendan Steele (13308285),Brendan Steele,13308285,G,6700,A Military Tribute at The Greenbrier,Golf,51.05
G,Brendon Todd (13308291),Brendon Todd,13308291,G,6700,A Military Tribute at The Greenbrier,Golf,60.59
G,Brian Gay (13365636),Brian Gay,13365636,G,6500,Sanderson Farms Championship,Golf,54.5
G,Brian Stuard (13308271),Brian Stuard,13308271,G,7000,A Military Tribute at The Greenbrier,Golf,57.18
G,Brice Garnett (13308265),Brice Garnett,13308265,G,7100,A Military Tribute at The Greenbrier,Golf,55.91
G,Bronson Burgoon (13308237),Bronson Burgoon,13308237,G,7800,A Military Tribute at The Greenbrier,Golf,51.92
G,Bryson DeChambeau (13308211),Bryson DeChambeau,13308211,G,11100,A Military Tribute at The Greenbrier,Golf,76.70
G,Bud Cauley (13308239),Bud Cauley,13308239,G,7700,A Military Tribute at The Greenbrier,Golf,59.66
G,Byeong Hun An (13308219),Byeong Hun An,13308219,G,9500,A Military Tribute at The Greenbrier,Golf,65.94
G,C.T. Pan (13487045),C.T. Pan,13487045,G,6800,Shriners Hospitals for Children Open,Golf,31.5
G,Cameron Champ (13365566),Cameron Champ,13365566,G,8600,Sanderson Farms Championship,Golf,55.76
G,Cameron Davis (13308280),Cameron Davis,13308280,G,6800,A Military Tribute at The Greenbrier,Golf,54.06
G,Cameron Percy (13308299),Cameron Percy,13308299,G,6500,A Military Tribute at The Greenbrier,Golf,0
G,Cameron Tringale (13308252),Cameron Tringale,13308252,G,7300,A Military Tribute at The Greenbrier,Golf,63.2
G,Carlos Ortiz (13308281),Carlos Ortiz,13308281,G,6800,A Military Tribute at The Greenbrier,Golf,52.5
G,Charles Howell III (13486996),Charles Howell III,13486996,G,8500,Shriners Hospitals for Children Open,Golf,105.5
G,Charley Hoffman (13365583),Charley Hoffman,13365583,G,7500,Sanderson Farms Championship,Golf,49
G,Chase Seiffert (13308305),Chase Seiffert,13308305,G,6500,A Military Tribute at The Greenbrier,Golf,0
G,Chesson Hadley (13365590),Chesson Hadley,13365590,G,7300,Sanderson Farms Championship,Golf,48.62
G,Chez Reavie (13486994),Chez Reavie,13486994,G,8700,Shriners Hospitals for Children Open,Golf,75.5
G,Chris Baker (13308302),Chris Baker,13308302,G,6500,A Military Tribute at The Greenbrier,Golf,0
G,Chris Stroud (13487105),Chris Stroud,13487105,G,6100,Shriners Hospitals for Children Open,Golf,13.5
G,Collin Morikawa (13486986),Collin Morikawa,13486986,G,9500,Shriners Hospitals for Children Open,Golf,85.5
G,Corey Conners (13365556),Corey Conners,13365556,G,9600,Sanderson Farms Championship,Golf,57.54
G,Daniel Berger (13487024),Daniel Berger,13487024,G,7200,Shriners Hospitals for Children Open,Golf,83.5
G,Danny Lee (13308236),Danny Lee,13308236,G,7900,A Military Tribute at The Greenbrier,Golf,54.75
G,David Hearn (13308249),David Hearn,13308249,G,7400,A Military Tribute at The Greenbrier,Golf,49.82
G,Doc Redman (13308270),Doc Redman,13308270,G,7000,A Military Tribute at The Greenbrier,Golf,67.17
G,Dominic Bozzelli (13308304),Dominic Bozzelli,13308304,G,6500,A Military Tribute at The Greenbrier,Golf,57.87
G,Dylan Frittelli (13365560),Dylan Frittelli,13365560,G,9200,Sanderson Farms Championship,Golf,63.98
G,Emiliano Grillo (13365558),Emiliano Grillo,13365558,G,9400,Sanderson Farms Championship,Golf,67.64
G,Fabian Gomez (13308257),Fabian Gomez,13308257,G,7200,A Military Tribute at The Greenbrier,Golf,52.92
G,George McNeill (13308348),George McNeill,13308348,G,6100,A Military Tribute at The Greenbrier,Golf,50.5
G,Grayson Murray (13308278),Grayson Murray,13308278,G,6800,A Military Tribute at The Greenbrier,Golf,41.39
G,Hank Lebioda (13308283),Hank Lebioda,13308283,G,6800,A Military Tribute at The Greenbrier,Golf,58.54
G,Harold Varner III (13308227),Harold Varner III,13308227,G,8700,A Military Tribute at The Greenbrier,Golf,59.81
G,Harris English (13308282),Harris English,13308282,G,6800,A Military Tribute at The Greenbrier,Golf,59.85
G,Harry Higgs (13308258),Harry Higgs,13308258,G,7200,A Military Tribute at The Greenbrier,Golf,0
G,Henrik Norlander (13308262),Henrik Norlander,13308262,G,7100,A Military Tribute at The Greenbrier,Golf,79.5
G,Hideki Matsuyama (13486984),Hideki Matsuyama,13486984,G,9700,Shriners Hospitals for Children Open,Golf,25.5
G,Isaiah Salinda (13495644),Isaiah Salinda,13495644,G,6400,Shriners Hospitals for Children Open,Golf,73
G,J.J. Spaun (13308274),J.J. Spaun,13308274,G,6900,A Military Tribute at The Greenbrier,Golf,60.04
G,Jamie Lovemark (13308324),Jamie Lovemark,13308324,G,6300,A Military Tribute at The Greenbrier,Golf,55.07
G,Jason Dufner (13308245),Jason Dufner,13308245,G,7500,A Military Tribute at The Greenbrier,Golf,50
G,Jhonattan Vegas (13487025),Jhonattan Vegas,13487025,G,7200,Shriners Hospitals for Children Open,Golf,51
G,Jim Furyk (13487012),Jim Furyk,13487012,G,7500,Shriners Hospitals for Children Open,Golf,77
G,Joel Dahmen (13308234),Joel Dahmen,13308234,G,8000,A Military Tribute at The Greenbrier,Golf,59.36
G,John Daly (13308351),John Daly,13308351,G,6000,A Military Tribute at The Greenbrier,Golf,34.5
G,John Huh (13308328),John Huh,13308328,G,6200,A Military Tribute at The Greenbrier,Golf,39.85
G,John Oda (13495645),John Oda,13495645,G,6300,Shriners Hospitals for Children Open,Golf,70
G,Kevin Chappell (13308267),Kevin Chappell,13308267,G,7000,A Military Tribute at The Greenbrier,Golf,89.5
G,Kevin Na (13308222),Kevin Na,13308222,G,9200,A Military Tribute at The Greenbrier,Golf,55.75
G,Kevin Stadler (13365679),Kevin Stadler,13365679,G,6100,Sanderson Farms Championship,Golf,28.5
G,Kevin Streelman (13308228),Kevin Streelman,13308228,G,8600,A Military Tribute at The Greenbrier,Golf,56.96
G,Kevin Tway (13487023),Kevin Tway,13487023,G,7200,Shriners Hospitals for Children Open,Golf,31
G,Kristoffer Ventura (13308321),Kristoffer Ventura,13308321,G,6300,A Military Tribute at The Greenbrier,Golf,41.83
G,Kyle Stanley (13365571),Kyle Stanley,13365571,G,8100,Sanderson Farms Championship,Golf,55.67
G,Kyoung-Hoon Lee (13308301),Kyoung-Hoon Lee,13308301,G,6500,A Military Tribute at The Greenbrier,Golf,50.74
G,Lanto Griffin (13308263),Lanto Griffin,13308263,G,7100,A Military Tribute at The Greenbrier,Golf,0
G,Lucas Glover (13365551),Lucas Glover,13365551,G,10200,Sanderson Farms Championship,Golf,69.88
G,Luke List (13365572),Luke List,13365572,G,8000,Sanderson Farms Championship,Golf,51.57
G,Mackenzie Hughes (13308259),Mackenzie Hughes,13308259,G,7200,A Military Tribute at The Greenbrier,Golf,54.04
G,Marc Leishman (13308214),Marc Leishman,13308214,G,10200,A Military Tribute at The Greenbrier,Golf,73.10
G,Mark Anderson (13308342),Mark Anderson,13308342,G,6100,A Military Tribute at The Greenbrier,Golf,25.5
G,Mark Hubbard (13308296),Mark Hubbard,13308296,G,6600,A Military Tribute at The Greenbrier,Golf,0
G,Martin Laird (13308226),Martin Laird,13308226,G,8800,A Military Tribute at The Greenbrier,Golf,61.7
G,Martin Trainer (13308350),Martin Trainer,13308350,G,6000,A Military Tribute at The Greenbrier,Golf,38.18
G,Matt Every (13308317),Matt Every,13308317,G,6300,A Military Tribute at The Greenbrier,Golf,56.73
G,Matt Jones (13308246),Matt Jones,13308246,G,7500,A Military Tribute at The Greenbrier,Golf,57.33
G,Matthew NeSmith (13308315),Matthew NeSmith,13308315,G,6400,A Military Tribute at The Greenbrier,Golf,0
G,Maverick McNealy (13308311),Maverick McNealy,13308311,G,6400,A Military Tribute at The Greenbrier,Golf,42.75
G,Max Homa (13487084),Max Homa,13487084,G,6300,Shriners Hospitals for Children Open,Golf,60.5
G,Michael Gellerman (13308357),Michael Gellerman,13308357,G,6000,A Military Tribute at The Greenbrier,Golf,0
G,Michael Gligic (13308322),Michael Gligic,13308322,G,6300,A Military Tribute at The Greenbrier,Golf,27
G,Michael Kim (13308358),Michael Kim,13308358,G,6000,A Military Tribute at The Greenbrier,Golf,30.36
G,Michael Thompson (13365607),Michael Thompson,13365607,G,6900,Sanderson Farms Championship,Golf,57.09
G,Morgan Hoffmann (13308323),Morgan Hoffmann,13308323,G,6300,A Military Tribute at The Greenbrier,Golf,36.91
G,Nate Lashley (13308275),Nate Lashley,13308275,G,6900,A Military Tribute at The Greenbrier,Golf,62.12
G,Nelson Ledesma (13308336),Nelson Ledesma,13308336,G,6200,A Military Tribute at The Greenbrier,Golf,0
G,Nick Taylor (13308253),Nick Taylor,13308253,G,7300,A Military Tribute at The Greenbrier,Golf,60.79
G,Nick Watney (13308254),Nick Watney,13308254,G,7300,A Military Tribute at The Greenbrier,Golf,59.26
G,Pat Perez (13487085),Pat Perez,13487085,G,6300,Shriners Hospitals for Children Open,Golf,27.5
G,Patrick Cantlay (13486979),Patrick Cantlay,13486979,G,11100,Shriners Hospitals for Children Open,Golf,73.5
G,Patrick Rodgers (13308333),Patrick Rodgers,13308333,G,6200,A Military Tribute at The Greenbrier,Golf,52.14
G,Patton Kizzire (13308287),Patton Kizzire,13308287,G,6700,A Military Tribute at The Greenbrier,Golf,52.54
G,Peter Malnati (13308288),Peter Malnati,13308288,G,6700,A Military Tribute at The Greenbrier,Golf,57.36
G,Phil Mickelson (13487021),Phil Mickelson,13487021,G,7300,Shriners Hospitals for Children Open,Golf,32.5
G,Rafael Campos (13308329),Rafael Campos,13308329,G,6200,A Military Tribute at The Greenbrier,Golf,50.75
G,Rhein Gibson (13308347),Rhein Gibson,13308347,G,6100,A Military Tribute at The Greenbrier,Golf,63.5
G,Ricky Barnes (13365671),Ricky Barnes,13365671,G,6100,Sanderson Farms Championship,Golf,35.82
G,Rob Oppenheim (13308309),Rob Oppenheim,13308309,G,6400,A Military Tribute at The Greenbrier,Golf,25.75
G,Robby Shelton (13308307),Robby Shelton,13308307,G,6400,A Military Tribute at The Greenbrier,Golf,0
G,Robert Streb (13308229),Robert Streb,13308229,G,8500,A Military Tribute at The Greenbrier,Golf,47.63
G,Roger Sloan (13308306),Roger Sloan,13308306,G,6500,A Military Tribute at The Greenbrier,Golf,59.18
G,Ryan Brehm (13308284),Ryan Brehm,13308284,G,6800,A Military Tribute at The Greenbrier,Golf,0
G,Ryan Moore (13487005),Ryan Moore,13487005,G,7800,Shriners Hospitals for Children Open,Golf,26
G,Sam Ryder (13308264),Sam Ryder,13308264,G,7100,A Military Tribute at The Greenbrier,Golf,61.04
G,Sang-Moon Bae (13308318),Sang-Moon Bae,13308318,G,6300,A Military Tribute at The Greenbrier,Golf,44.48
G,Satoshi Kodaira (13487093),Satoshi Kodaira,13487093,G,6200,Shriners Hospitals for Children Open,Golf,23.5
G,Scott Brown (13308312),Scott Brown,13308312,G,6400,A Military Tribute at The Greenbrier,Golf,53.79
G,Scott Harrington (13308295),Scott Harrington,13308295,G,6600,A Military Tribute at The Greenbrier,Golf,0
G,Scott Piercy (13308218),Scott Piercy,13308218,G,9600,A Military Tribute at The Greenbrier,Golf,73.87
G,Sebastian Cappelen (13308354),Sebastian Cappelen,13308354,G,6000,A Military Tribute at The Greenbrier,Golf,0
G,Sebastian Munoz (13308244),Sebastian Munoz,13308244,G,7600,A Military Tribute at The Greenbrier,Golf,63.32
G,Sepp Straka (13308243),Sepp Straka,13308243,G,7600,A Military Tribute at The Greenbrier,Golf,60.15
G,Si Woo Kim (13365565),Si Woo Kim,13365565,G,8700,Sanderson Farms Championship,Golf,58.82
G,Sung Kang (13308268),Sung Kang,13308268,G,7000,A Military Tribute at The Greenbrier,Golf,56.92
G,Sungjae Im (13308216),Sungjae Im,13308216,G,9800,A Military Tribute at The Greenbrier,Golf,68.75
G,Talor Gooch (13308261),Talor Gooch,13308261,G,7100,A Military Tribute at The Greenbrier,Golf,58.94
G,Tom Hoge (13308266),Tom Hoge,13308266,G,7000,A Military Tribute at The Greenbrier,Golf,49.13
G,Troy Merritt (13487039),Troy Merritt,13487039,G,6900,Shriners Hospitals for Children Open,Golf,58.8
G,Tyler Duncan (13308294),Tyler Duncan,13308294,G,6600,A Military Tribute at The Greenbrier,Golf,50.73
G,Tyler McCumber (13308330),Tyler McCumber,13308330,G,6200,A Military Tribute at The Greenbrier,Golf,74
G,Vaughn Taylor (13365559),Vaughn Taylor,13365559,G,9300,Sanderson Farms Championship,Golf,66.04
G,Vince Covello (13308337),Vince Covello,13308337,G,6200,A Military Tribute at The Greenbrier,Golf,0
G,Vincent Whaley (13308331),Vincent Whaley,13308331,G,6200,A Military Tribute at The Greenbrier,Golf,0
G,Wyndham Clark (13365568),Wyndham Clark,13365568,G,8400,Sanderson Farms Championship,Golf,61.86
G,Xinjun Zhang (13308292),Xinjun Zhang,13308292,G,6600,A Military Tribute at The Greenbrier,Golf,48
G,Zac Blair (13308276),Zac Blair,13308276,G,6900,A Military Tribute at The Greenbrier,Golf,33.75
