{ "Jim" : { "Last": "Plank", 
            "Age": "Infinity",
            "Children": [ "Katie", "Emily", "Ellen", "Jeff" ] },
  "Brad" : { "Last": "Vander Zanden",
             "Age": 55,
            "Children": []}}
