 { "value": "salary", "tournament": "2019-11-24-RSM", "golfers": {
"Webb Simpson": 10400,
"Billy Horschel": 10200,
"Harris English": 10000,
"Matt Kuchar": 9800,
"Charles Howell III": 9600,
"Scottie Scheffler": 9400,
"Adam Hadwin": 9300,
"Kevin Kisner": 9200,
"Brian Gay": 9100,
"Brendon Todd": 9000,
"Dylan Frittelli": 8900,
"Denny McCarthy": 8800,
"Zach Johnson": 8700,
"Russell Knox": 8600,
"Aaron Wise": 8500,
"Russell Henley": 8400,
"Alex Noren": 8300,
"Lanto Griffin": 8200,
"Adam Long": 8100,
"Rory Sabbatini": 8000,
"Robby Shelton": 8000,
"Vaughn Taylor": 7900,
"J.T. Poston": 7900,
"Brian Harman": 7800,
"David Hearn": 7800,
"Joel Dahmen": 7700,
"Jim Furyk": 7700,
"D.J. Trahan": 7600,
"Chris Kirk": 7600,
"Hank Lebioda": 7600,
"Xinjun Zhang": 7500,
"Ryan Armour": 7500,
"Brice Garnett": 7500,
"Joseph Bramlett": 7500,
"Cameron Tringale": 7400,
"Chris Stroud": 7400,
"Seamus Power": 7400,
"Harry Higgs": 7400,
"Rhein Gibson": 7300,
"Nick Taylor": 7300,
"Kramer Hickok": 7300,
"Cameron Davis": 7300,
"Tyler McCumber": 7300,
"Bronson Burgoon": 7200,
"Chris Baker": 7200,
"Austin Cook": 7200,
"Mark Hubbard": 7200,
"Sebastian Munoz": 7200,
"Doug Ghim": 7200,
"Stewart Cink": 7100,
"Brian Stuard": 7100,
"Bill Haas": 7100,
"Kevin Streelman": 7100,
"Davis Riley": 7100,
"Beau Hossler": 7100,
"Maverick McNealy": 7100,
"Talor Gooch": 7000,
"Bo Hoag": 7000,
"Si Woo Kim": 7000,
"Scott Harrington": 7000,
"Kyle Stanley": 7000,
"Scott Stallings": 7000,
"Cameron Percy": 7000,
"Dominic Bozzelli": 7000,
"Brendan Steele": 6900,
"Michael Thompson": 6900,
"Michael Gligic": 6900,
"Kevin Chappell": 6900,
"Troy Merritt": 6900,
"Fabian Gomez": 6900,
"Martin Laird": 6900,
"Matt Jones": 6900,
"Chesson Hadley": 6900,
"Peter Uihlein": 6800,
"Patrick Rodgers": 6800,
"Luke Donald": 6800,
"Andrew Landry": 6800,
"Boo Weekley": 6800,
"Roberto Castro": 6800,
"J.J. Spaun": 6800,
"Sam Ryder": 6800,
"Akshay Bhatia": 6800,
"Luke List": 6700,
"Josh Teater": 6700,
"Nick Watney": 6700,
"Peter Malnati": 6700,
"Shawn Stefani": 6700,
"Tyler Duncan": 6700,
"Sepp Straka": 6700,
"Keith Mitchell": 6700,
"Doc Redman": 6700,
"Sang-Moon Bae": 6600,
"Anirban Lahiri": 6600,
"Patton Kizzire": 6600,
"Robert Streb": 6600,
"James Hahn": 6600,
"Tom Hoge": 6600,
"Aaron Baddeley": 6600,
"Jason Dufner": 6600,
"Michael Gellerman": 6600,
"Zac Blair": 6500,
"Mackenzie Hughes": 6500,
"Zack Sucher": 6500,
"Johnson Wagner": 6500,
"Henrik Norlander": 6500,
"Scott Brown": 6500,
"Ben Martin": 6500,
"Adam Schenk": 6500,
"Davis Thompson": 6500,
"Matt Atkins": 6400,
"Jonathan Byrd": 6400,
"Ben Crane": 6400,
"Hudson Swafford": 6400,
"Wes Roach": 6400,
"K.J. Choi": 6400,
"Chad Campbell": 6400,
"Matthew NeSmith": 6400,
"Rafael Campos": 6400,
"David Lingmerth": 6300,
"Kyoung-Hoon Lee": 6300,
"Fredrik Jacobson": 6300,
"George McNeill": 6300,
"Sebastian Cappelen": 6300,
"Rob Oppenheim": 6300,
"John Merrick": 6300,
"Cole Miller": 6300,
"Kristoffer Ventura": 6300,
"Satoshi Kodaira": 6200,
"Robert Garrigus": 6200,
"Ben Taylor": 6200,
"Chase Seiffert": 6200,
"Alex Cejka": 6200,
"Davis Love III": 6200,
"Derek Ernst": 6200,
"Ryan Brehm": 6200,
"Greyson Sigg": 6200,
"Kyle Reifers": 6100,
"Tim Weinhart": 6100,
"Arjun Atwal": 6100,
"Dru Love": 6100,
"Brandon Hagy": 6100,
"Ted Potter Jr.": 6100,
"Mark Anderson": 6100,
"Ricky Barnes": 6100,
"Will Gordon": 6100,
"Henry Chung": 6100,
"Tim Herron": 6000,
"Jim Herman": 6000,
"J.J. Henry": 6000,
"Vince Covello": 6000,
"Michael Kim": 6000,
"D.A. Points": 6000,
"Tommy Gainey": 6000,
"Tim Wilkinson": 6000,
"Nelson Ledesma": 6000,
"Vincent Whaley": 6000 }} 
