 { "value": "salary", "tournament": "2020-08-23-Northern", "golfers": {
"Brooks Koepka": 11400,
"Webb Simpson": 11200,
"Patrick Reed": 10700,
"Tommy Fleetwood": 10500,
"Paul Casey": 10300,
"Justin Rose": 9900,
"Abraham Ancer": 9700,
"Harris English": 9300,
"Billy Horschel": 9100,
"Jordan Spieth": 9000,
"Brendon Todd": 8900,
"Sungjae Im": 8800,
"Shane Lowry": 8700,
"Si Woo Kim": 8600,
"Sergio Garcia": 8500,
"Chez Reavie": 8400,
"Kevin Kisner": 8300,
"Brandt Snedeker": 8200,
"Ryan Moore": 8100,
"Corey Conners": 8000,
"Dylan Frittelli": 7900,
"Joaquin Niemann": 7900,
"Doc Redman": 7800,
"J.T. Poston": 7800,
"Russell Henley": 7700,
"Patrick Rodgers": 7700,
"Christiaan Bezuidenhout": 7700,
"Tom Lewis": 7600,
"Maverick McNealy": 7600,
"Harold Varner III": 7600,
"Matthias Schwab": 7500,
"Charles Howell III": 7500,
"Rory Sabbatini": 7500,
"Charl Schwartzel": 7400,
"Lanto Griffin": 7400,
"Matt Wallace": 7400,
"Carlos Ortiz": 7300,
"Lucas Glover": 7300,
"Chris Kirk": 7300,
"Henrik Norlander": 7300,
"Danny Willett": 7200,
"Luke List": 7200,
"Jim Furyk": 7200,
"Bud Cauley": 7200,
"Sam Burns": 7200,
"Sepp Straka": 7100,
"Scott Stallings": 7100,
"Brian Harman": 7100,
"Charley Hoffman": 7100,
"Branden Grace": 7100,
"Cameron Davis": 7000,
"Rafa Cabrera Bello": 7000,
"Zach Johnson": 7000,
"Jhonattan Vegas": 7000,
"Stewart Cink": 7000,
"Aaron Wise": 7000,
"Jason Kokrak": 6900,
"Adam Long": 6900,
"Denny McCarthy": 6900,
"Kristoffer Ventura": 6900,
"Pat Perez": 6900,
"Xinjun Zhang": 6900,
"Talor Gooch": 6900,
"Ryan Armour": 6800,
"Will Gordon": 6800,
"Keith Mitchell": 6800,
"Scott Piercy": 6800,
"Danny Lee": 6800,
"Kyle Stanley": 6800,
"Troy Merritt": 6800,
"Sam Ryder": 6700,
"Andrew Landry": 6700,
"Adam Schenk": 6700,
"Graeme McDowell": 6700,
"Mark Hubbard": 6700,
"Brandon Hagy": 6700,
"Brice Garnett": 6700,
"Joseph Bramlett": 6600,
"Wyndham Clark": 6600,
"Sebastian Munoz": 6600,
"Russell Knox": 6600,
"Chesson Hadley": 6600,
"Kyoung-Hoon Lee": 6600,
"Wesley Bryan": 6600,
"Robby Shelton": 6600,
"Matt Jones": 6500,
"Luke Donald": 6500,
"Jason Dufner": 6500,
"Brian Stuard": 6500,
"C.T. Pan": 6500,
"Austin Cook": 6500,
"Tom Hoge": 6500,
"Tyler Duncan": 6500,
"Nate Lashley": 6500,
"Chase Seiffert": 6400,
"Bo Hoag": 6400,
"Fabian Gomez": 6400,
"Sung Kang": 6400,
"Seamus Power": 6400,
"Vaughn Taylor": 6400,
"Nick Watney": 6400,
"Kiradech Aphibarnrat": 6400,
"Matthew NeSmith": 6400,
"Bill Haas": 6300,
"Robert Streb": 6300,
"Mark Anderson": 6300,
"Roger Sloan": 6300,
"Aaron Baddeley": 6300,
"David Hearn": 6300,
"J.J. Spaun": 6300,
"Kevin Tway": 6300,
"Doug Ghim": 6300,
"Beau Hossler": 6300,
"Scott Brown": 6200,
"Bronson Burgoon": 6200,
"Chris Baker": 6200,
"Harry Higgs": 6200,
"Chris Stroud": 6200,
"Grayson Murray": 6200,
"Brian Gay": 6200,
"Scott Harrington": 6200,
"Patton Kizzire": 6200,
"Tim Wilkinson": 6200,
"Cameron Percy": 6200,
"Carl Pettersson": 6100,
"Jim Herman": 6100,
"Ted Potter Jr.": 6100,
"Davis Love III": 6100,
"Kramer Hickok": 6100,
"Hank Lebioda": 6100,
"Rob Oppenheim": 6100,
"Bo Van Pelt": 6100,
"Zac Blair": 6100,
"Michael Gligic": 6100,
"Peter Malnati": 6100,
"Anirban Lahiri": 6100,
"Ben Taylor": 6000,
"Sebastian Cappelen": 6000,
"Ryan Brehm": 6000,
"Akshay Bhatia": 6000,
"Michael Gellerman": 6000,
"Greg Chalmers": 6000,
"Matt Every": 6000,
"Arjun Atwal": 6000,
"Rhein Gibson": 6000,
"Tyler McCumber": 6000,
"Vincent Whaley": 6000,
"D.J. Trahan": 6000,
"Michael Kim": 6000,
"Nelson Ledesma": 6000,
"Martin Trainer": 6000,
"Vince Covello": 6000,
"John Senden": 6000,
"David Berganio": 6000 }} 
