 { "value": "salary", "tournament": "2020-07-19-Memorial", "golfers": {
"Bryson DeChambeau": 11100,
"Justin Thomas": 10900,
"Rory McIlroy": 10700,
"Dustin Johnson": 10300,
"Collin Morikawa": 10000,
"Patrick Cantlay": 9800,
"Webb Simpson": 9600,
"Viktor Hovland": 9500,
"Hideki Matsuyama": 9400,
"Jon Rahm": 9300,
"Xander Schauffele": 9200,
"Brooks Koepka": 9100,
"Tiger Woods": 9000,
"Justin Rose": 8900,
"Rickie Fowler": 8800,
"Daniel Berger": 8700,
"Gary Woodland": 8600,
"Abraham Ancer": 8500,
"Patrick Reed": 8400,
"Tony Finau": 8300,
"Sungjae Im": 8200,
"Matthew Fitzpatrick": 8100,
"Jason Day": 8000,
"Matt Kuchar": 8000,
"Joaquin Niemann": 7900,
"Paul Casey": 7900,
"Sergio Garcia": 7800,
"Marc Leishman": 7800,
"Jordan Spieth": 7700,
"Byeong Hun An": 7700,
"Ian Poulter": 7600,
"Kevin Streelman": 7600,
"Doc Redman": 7600,
"Rory Sabbatini": 7500,
"Billy Horschel": 7500,
"Kevin Kisner": 7500,
"Corey Conners": 7400,
"Adam Hadwin": 7400,
"Cameron Champ": 7400,
"Matthew Wolff": 7400,
"Phil Mickelson": 7300,
"Bubba Watson": 7300,
"Harris English": 7300,
"Louis Oosthuizen": 7300,
"Shane Lowry": 7200,
"Keegan Bradley": 7200,
"Kevin Na": 7200,
"Scottie Scheffler": 7200,
"Joel Dahmen": 7100,
"Brian Harman": 7100,
"Brendan Steele": 7100,
"Lucas Glover": 7100,
"Harold Varner III": 7100,
"Sepp Straka": 7000,
"Erik Van Rooyen": 7000,
"Matt Wallace": 7000,
"Danny Willett": 7000,
"J.T. Poston": 7000,
"Ryan Moore": 6900,
"Nick Taylor": 6900,
"Alex Noren": 6900,
"Jason Kokrak": 6900,
"Brendon Todd": 6900,
"Rafa Cabrera Bello": 6900,
"Christiaan Bezuidenhout": 6800,
"Max Homa": 6800,
"Brandt Snedeker": 6800,
"Patrick Rodgers": 6800,
"Maverick McNealy": 6800,
"Lanto Griffin": 6800,
"Cameron Smith": 6700,
"Mackenzie Hughes": 6700,
"Mark Hubbard": 6700,
"Emiliano Grillo": 6700,
"Chez Reavie": 6700,
"Zach Johnson": 6700,
"Dylan Frittelli": 6600,
"Bud Cauley": 6600,
"Graeme McDowell": 6600,
"Charles Howell III": 6600,
"Troy Merritt": 6600,
"Bernd Wiesberger": 6600,
"Hao-Tong Li": 6500,
"Vaughn Taylor": 6500,
"Brian Stuard": 6500,
"Talor Gooch": 6500,
"Jim Furyk": 6500,
"Jason Dufner": 6500,
"Sebastian Munoz": 6500,
"Scott Piercy": 6400,
"Carlos Ortiz": 6400,
"Si Woo Kim": 6400,
"Danny Lee": 6400,
"Matthias Schwab": 6400,
"Adam Long": 6400,
"Ryan Palmer": 6400,
"Charl Schwartzel": 6300,
"Harry Higgs": 6300,
"Branden Grace": 6300,
"Henrik Norlander": 6300,
"Wyndham Clark": 6300,
"Victor Perez": 6300,
"Tyler Duncan": 6300,
"Andrew Landry": 6300,
"Jimmy Walker": 6200,
"Tom Hoge": 6200,
"Jazz Janewattananond": 6200,
"Sung Kang": 6200,
"C.T. Pan": 6200,
"Matthew NeSmith": 6200,
"Keith Mitchell": 6200,
"Nate Lashley": 6200,
"Kevin Tway": 6100,
"Denny McCarthy": 6100,
"Ernie Els": 6100,
"William McGirt": 6100,
"David Lingmerth": 6100,
"Zac Blair": 6100,
"Stewart Cink": 6100,
"Andrew Putnam": 6100,
"Bo Hoag": 6100,
"Bill Haas": 6000,
"Peter Kuest": 6000,
"Andy Ogletree": 6000,
"Tom Lehman": 6000,
"Steve Stricker": 6000,
"Jason Scrivener": 6000,
"Scott Harrington": 6000,
"Carl Pettersson": 6000,
"Jim Herman": 6000,
"Xinjun Zhang": 6000,
"Vijay Singh": 6000,
"K.J. Choi": 6000 }} 
