 { "value": "salary", "tournament": "2020-09-06-Tour-Champ", "golfers": {
"Dustin Johnson": 15200,
"Jon Rahm": 12700,
"Justin Thomas": 11900,
"Webb Simpson": 11000,
"Collin Morikawa": 10400,
"Bryson DeChambeau": 10100,
"Rory McIlroy": 9700,
"Hideki Matsuyama": 9300,
"Daniel Berger": 9100,
"Xander Schauffele": 8900,
"Harris English": 8700,
"Patrick Reed": 8500,
"Tony Finau": 8200,
"Scottie Scheffler": 7900,
"Brendon Todd": 7600,
"Sungjae Im": 7300,
"Tyrrell Hatton": 7000,
"Kevin Kisner": 6800,
"Viktor Hovland": 6600,
"Joaquin Niemann": 6300,
"Abraham Ancer": 6100,
"Sebastian Munoz": 5900,
"Billy Horschel": 5700,
"Lanto Griffin": 5600,
"Kevin Na": 5500,
"Ryan Palmer": 5400,
"Cameron Champ": 5300,
"Mackenzie Hughes": 5200,
"Cameron Smith": 5100,
"Marc Leishman": 5000 }} 
