{
  "golfers": {
    "Aaron Baddeley": 67.5,
    "Abraham Ancer": 31,
    "Adam Hadwin": 111,
    "Adam Long": 83.5,
    "Adam Schenk": 26.5,
    "Adam Scott": 90.5,
    "Akshay Bhatia": 24.5,
    "Andres Gonzales": 30,
    "Andrew Landry": 73.5,
    "Anirban Lahiri": 39,
    "Austin Cook": 25.5,
    "Beau Hossler": 25,
    "Ben Martin": 17,
    "Ben Taylor": 26.5,
    "Bo Hoag": 66,
    "Bo Van Pelt": 56,
    "Brandon Hagy": 30,
    "Brandt Snedeker": 76,
    "Brendan Steele": 63,
    "Brendon Todd": 24,
    "Brian Gay": 88.5,
    "Brian Stuard": 71,
    "Brice Garnett": 72,
    "Bronson Burgoon": 30,
    "Bryson DeChambeau": 88.5,
    "Bud Cauley": 73.5,
    "Byeong Hun An": 16.5,
    "Byron Meth": 16.5,
    "C.T. Pan": 29,
    "Cameron Champ": 128.5,
    "Cameron Davis": 33.5,
    "Cameron Percy": 85,
    "Cameron Tringale": 68,
    "Carlos Ortiz": 68,
    "Charles Howell III": 105.5,
    "Charley Hoffman": 29,
    "Chase Seiffert": 25.5,
    "Chesson Hadley": 74.5,
    "Chez Reavie": 75.5,
    "Chris Baker": 35.5,
    "Chris Stroud": 13.5,
    "Collin Morikawa": 85.5,
    "Colt Knost": 19,
    "Corey Conners": 89,
    "Daniel Berger": 83.5,
    "Danny Lee": 28.5,
    "David Hearn": 59,
    "Doc Redman": 31,
    "Dominic Bozzelli": 31,
    "Dylan Frittelli": 99.5,
    "Emiliano Grillo": 31,
    "Fabian Gomez": 60,
    "Francesco Molinari": 82.5,
    "Fred Couples": 22,
    "George McNeill": 11,
    "Grayson Murray": 40,
    "Hank Lebioda": 64.5,
    "Harold Varner III": 77.5,
    "Harris English": 68,
    "Harry Higgs": 79,
    "Henrik Norlander": 31.5,
    "Hideki Matsuyama": 25.5,
    "Isaiah Salinda": 73,
    "J.J. Spaun": 14,
    "Jamie Lovemark": 30.5,
    "Jason Dufner": 27.5,
    "Jhonattan Vegas": 70.5,
    "Jim Furyk": 77,
    "Jin Ho Chung": 22,
    "Joel Dahmen": 31,
    "John Daly": 22,
    "John Huh": 31,
    "John Oda": 70,
    "Justin Thomas": 100.5,
    "Kevin Chappell": 75,
    "Kevin Na": 27,
    "Kevin Stadler": 17,
    "Kevin Streelman": 25.5,
    "Kevin Tway": 31,
    "Kristoffer Ventura": 60.5,
    "Kyle Stanley": 30,
    "Kyoung-Hoon Lee": 20.5,
    "Lanto Griffin": 81,
    "Lucas Glover": 23,
    "Luke List": 29,
    "Mackenzie Hughes": 24.5,
    "Marc Leishman": 100.5,
    "Mark Anderson": 16,
    "Mark Hubbard": 86.5,
    "Martin Laird": 27,
    "Martin Trainer": 29.5,
    "Matt Every": 32.5,
    "Matt Jones": 0,
    "Matthew NeSmith": 34.5,
    "Maverick McNealy": 63,
    "Max Homa": 60.5,
    "Michael Gellerman": 23,
    "Michael Gligic": 61,
    "Michael Kim": 27,
    "Michael Thompson": 74.5,
    "Morgan Hoffmann": 29.5,
    "Nate Lashley": 33.5,
    "Nelson Ledesma": 29.5,
    "Nick Taylor": 86.5,
    "Nick Watney": 88.5,
    "Pat Perez": 27.5,
    "Patrick Cantlay": 73.5,
    "Patrick Rodgers": 67.5,
    "Patton Kizzire": 29.5,
    "Peter Malnati": 22,
    "Phil Mickelson": 32.5,
    "Rafael Campos": 83,
    "Rhein Gibson": 70.5,
    "Ricky Barnes": 51.5,
    "Rob Oppenheim": 61.5,
    "Robby Shelton": 60,
    "Robert Streb": 29.5,
    "Roger Sloan": 87,
    "Ryan Brehm": 31.5,
    "Ryan Moore": 26,
    "Sam Ryder": 24.5,
    "Sang-Moon Bae": 27.5,
    "Satoshi Kodaira": 23.5,
    "Scott Brown": 31,
    "Scott Harrington": 80,
    "Scott Piercy": 43,
    "Sebastian Cappelen": 31.5,
    "Sebastian Munoz": 78,
    "Sepp Straka": 32.5,
    "Si Woo Kim": 68,
    "Stuart Smith": 26,
    "Sung Kang": 28,
    "Sungjae Im": 61,
    "Talor Gooch": 59,
    "Tom Hoge": 28,
    "Tony Romo": 26,
    "Troy Merritt": 20.5,
    "Tyler Duncan": 60.5,
    "Tyler McCumber": 56,
    "Vaughn Taylor": 67,
    "Vince Covello": 28,
    "Vincent Whaley": 23.5,
    "Wyndham Clark": 28.5,
    "Xinjun Zhang": 91,
    "Zac Blair": 101
  },
  "tournament": "2019-09-29-Safeway",
  "value": "score"
}
